{
  "ABIRoot": {
    "kind": "Root",
    "name": "TopLevel",
    "printedName": "TopLevel",
    "children": [
      {
        "kind": "Import",
        "name": "UIKit",
        "printedName": "UIKit",
        "declKind": "Import",
        "moduleName": "RatingControl",
        "declAttributes": [
          "RawDocComment"
        ]
      },
      {
        "kind": "TypeDecl",
        "name": "RatingControl",
        "printedName": "RatingControl",
        "children": [
          {
            "kind": "Var",
            "name": "starSize",
            "printedName": "starSize",
            "children": [
              {
                "kind": "TypeNominal",
                "name": "CGSize",
                "printedName": "CoreFoundation.CGSize",
                "usr": "c:@S@CGSize"
              }
            ],
            "declKind": "Var",
            "usr": "c:@M@RatingControl@objc(cs)RatingControl(py)starSize",
            "mangledName": "$s13RatingControlAAC8starSizeSo6CGSizeVvp",
            "moduleName": "RatingControl",
            "declAttributes": [
              "HasInitialValue",
              "Custom",
              "HasStorage",
              "AccessControl",
              "IBInspectable",
              "ObjC"
            ],
            "hasStorage": true,
            "accessors": [
              {
                "kind": "Accessor",
                "name": "Get",
                "printedName": "Get()",
                "children": [
                  {
                    "kind": "TypeNominal",
                    "name": "CGSize",
                    "printedName": "CoreFoundation.CGSize",
                    "usr": "c:@S@CGSize"
                  }
                ],
                "declKind": "Accessor",
                "usr": "c:@M@RatingControl@objc(cs)RatingControl(im)starSize",
                "mangledName": "$s13RatingControlAAC8starSizeSo6CGSizeVvg",
                "moduleName": "RatingControl",
                "implicit": true,
                "declAttributes": [
                  "ObjC"
                ],
                "accessorKind": "get"
              },
              {
                "kind": "Accessor",
                "name": "Set",
                "printedName": "Set()",
                "children": [
                  {
                    "kind": "TypeNominal",
                    "name": "Void",
                    "printedName": "()"
                  },
                  {
                    "kind": "TypeNominal",
                    "name": "CGSize",
                    "printedName": "CoreFoundation.CGSize",
                    "usr": "c:@S@CGSize"
                  }
                ],
                "declKind": "Accessor",
                "usr": "c:@M@RatingControl@objc(cs)RatingControl(im)setStarSize:",
                "mangledName": "$s13RatingControlAAC8starSizeSo6CGSizeVvs",
                "moduleName": "RatingControl",
                "implicit": true,
                "declAttributes": [
                  "ObjC"
                ],
                "accessorKind": "set"
              },
              {
                "kind": "Accessor",
                "name": "Modify",
                "printedName": "Modify()",
                "children": [
                  {
                    "kind": "TypeNominal",
                    "name": "Void",
                    "printedName": "()"
                  }
                ],
                "declKind": "Accessor",
                "usr": "s:13RatingControlAAC8starSizeSo6CGSizeVvM",
                "mangledName": "$s13RatingControlAAC8starSizeSo6CGSizeVvM",
                "moduleName": "RatingControl",
                "implicit": true,
                "accessorKind": "_modify"
              }
            ]
          },
          {
            "kind": "Var",
            "name": "starCount",
            "printedName": "starCount",
            "children": [
              {
                "kind": "TypeNominal",
                "name": "Int",
                "printedName": "Swift.Int",
                "usr": "s:Si"
              }
            ],
            "declKind": "Var",
            "usr": "c:@M@RatingControl@objc(cs)RatingControl(py)starCount",
            "mangledName": "$s13RatingControlAAC9starCountSivp",
            "moduleName": "RatingControl",
            "declAttributes": [
              "HasInitialValue",
              "Custom",
              "HasStorage",
              "AccessControl",
              "IBInspectable",
              "ObjC"
            ],
            "hasStorage": true,
            "accessors": [
              {
                "kind": "Accessor",
                "name": "Get",
                "printedName": "Get()",
                "children": [
                  {
                    "kind": "TypeNominal",
                    "name": "Int",
                    "printedName": "Swift.Int",
                    "usr": "s:Si"
                  }
                ],
                "declKind": "Accessor",
                "usr": "c:@M@RatingControl@objc(cs)RatingControl(im)starCount",
                "mangledName": "$s13RatingControlAAC9starCountSivg",
                "moduleName": "RatingControl",
                "implicit": true,
                "declAttributes": [
                  "ObjC"
                ],
                "accessorKind": "get"
              },
              {
                "kind": "Accessor",
                "name": "Set",
                "printedName": "Set()",
                "children": [
                  {
                    "kind": "TypeNominal",
                    "name": "Void",
                    "printedName": "()"
                  },
                  {
                    "kind": "TypeNominal",
                    "name": "Int",
                    "printedName": "Swift.Int",
                    "usr": "s:Si"
                  }
                ],
                "declKind": "Accessor",
                "usr": "c:@M@RatingControl@objc(cs)RatingControl(im)setStarCount:",
                "mangledName": "$s13RatingControlAAC9starCountSivs",
                "moduleName": "RatingControl",
                "implicit": true,
                "declAttributes": [
                  "ObjC"
                ],
                "accessorKind": "set"
              },
              {
                "kind": "Accessor",
                "name": "Modify",
                "printedName": "Modify()",
                "children": [
                  {
                    "kind": "TypeNominal",
                    "name": "Void",
                    "printedName": "()"
                  }
                ],
                "declKind": "Accessor",
                "usr": "s:13RatingControlAAC9starCountSivM",
                "mangledName": "$s13RatingControlAAC9starCountSivM",
                "moduleName": "RatingControl",
                "implicit": true,
                "accessorKind": "_modify"
              }
            ]
          },
          {
            "kind": "Var",
            "name": "rating",
            "printedName": "rating",
            "children": [
              {
                "kind": "TypeNominal",
                "name": "Int",
                "printedName": "Swift.Int",
                "usr": "s:Si"
              }
            ],
            "declKind": "Var",
            "usr": "s:13RatingControlAAC6ratingSivp",
            "mangledName": "$s13RatingControlAAC6ratingSivp",
            "moduleName": "RatingControl",
            "declAttributes": [
              "HasInitialValue",
              "Custom",
              "HasStorage",
              "AccessControl"
            ],
            "hasStorage": true,
            "accessors": [
              {
                "kind": "Accessor",
                "name": "Get",
                "printedName": "Get()",
                "children": [
                  {
                    "kind": "TypeNominal",
                    "name": "Int",
                    "printedName": "Swift.Int",
                    "usr": "s:Si"
                  }
                ],
                "declKind": "Accessor",
                "usr": "s:13RatingControlAAC6ratingSivg",
                "mangledName": "$s13RatingControlAAC6ratingSivg",
                "moduleName": "RatingControl",
                "implicit": true,
                "accessorKind": "get"
              },
              {
                "kind": "Accessor",
                "name": "Set",
                "printedName": "Set()",
                "children": [
                  {
                    "kind": "TypeNominal",
                    "name": "Void",
                    "printedName": "()"
                  },
                  {
                    "kind": "TypeNominal",
                    "name": "Int",
                    "printedName": "Swift.Int",
                    "usr": "s:Si"
                  }
                ],
                "declKind": "Accessor",
                "usr": "s:13RatingControlAAC6ratingSivs",
                "mangledName": "$s13RatingControlAAC6ratingSivs",
                "moduleName": "RatingControl",
                "implicit": true,
                "accessorKind": "set"
              },
              {
                "kind": "Accessor",
                "name": "Modify",
                "printedName": "Modify()",
                "children": [
                  {
                    "kind": "TypeNominal",
                    "name": "Void",
                    "printedName": "()"
                  }
                ],
                "declKind": "Accessor",
                "usr": "s:13RatingControlAAC6ratingSivM",
                "mangledName": "$s13RatingControlAAC6ratingSivM",
                "moduleName": "RatingControl",
                "implicit": true,
                "accessorKind": "_modify"
              }
            ]
          },
          {
            "kind": "Constructor",
            "name": "init",
            "printedName": "init(frame:)",
            "children": [
              {
                "kind": "TypeNominal",
                "name": "RatingControl",
                "printedName": "RatingControl.RatingControl",
                "usr": "c:@M@RatingControl@objc(cs)RatingControl"
              },
              {
                "kind": "TypeNominal",
                "name": "CGRect",
                "printedName": "CoreFoundation.CGRect",
                "usr": "c:@S@CGRect"
              }
            ],
            "declKind": "Constructor",
            "usr": "c:@M@RatingControl@objc(cs)RatingControl(im)initWithFrame:",
            "mangledName": "$s13RatingControlAAC5frameABSo6CGRectV_tcfc",
            "moduleName": "RatingControl",
            "overriding": true,
            "objc_name": "initWithFrame:",
            "declAttributes": [
              "Dynamic",
              "ObjC",
              "Custom",
              "Override",
              "AccessControl",
              "RawDocComment"
            ],
            "init_kind": "Designated"
          },
          {
            "kind": "Constructor",
            "name": "init",
            "printedName": "init(coder:)",
            "children": [
              {
                "kind": "TypeNominal",
                "name": "RatingControl",
                "printedName": "RatingControl.RatingControl",
                "usr": "c:@M@RatingControl@objc(cs)RatingControl"
              },
              {
                "kind": "TypeNominal",
                "name": "NSCoder",
                "printedName": "Foundation.NSCoder",
                "usr": "c:objc(cs)NSCoder"
              }
            ],
            "declKind": "Constructor",
            "usr": "c:@M@RatingControl@objc(cs)RatingControl(im)initWithCoder:",
            "mangledName": "$s13RatingControlAAC5coderABSo7NSCoderC_tcfc",
            "moduleName": "RatingControl",
            "overriding": true,
            "objc_name": "initWithCoder:",
            "declAttributes": [
              "Dynamic",
              "ObjC",
              "Custom",
              "Required",
              "AccessControl"
            ],
            "init_kind": "Designated"
          },
          {
            "kind": "Function",
            "name": "ratingButtonTapped",
            "printedName": "ratingButtonTapped(button:)",
            "children": [
              {
                "kind": "TypeNominal",
                "name": "Void",
                "printedName": "()"
              },
              {
                "kind": "TypeNominal",
                "name": "UIButton",
                "printedName": "UIKit.UIButton",
                "usr": "c:objc(cs)UIButton"
              }
            ],
            "declKind": "Func",
            "usr": "c:@M@RatingControl@objc(cs)RatingControl(im)ratingButtonTappedWithButton:",
            "mangledName": "$s13RatingControlAAC18ratingButtonTapped6buttonySo8UIButtonC_tF",
            "moduleName": "RatingControl",
            "objc_name": "ratingButtonTappedWithButton:",
            "declAttributes": [
              "Custom",
              "AccessControl",
              "ObjC",
              "RawDocComment"
            ],
            "funcSelfKind": "NonMutating"
          }
        ],
        "declKind": "Class",
        "usr": "c:@M@RatingControl@objc(cs)RatingControl",
        "mangledName": "$s13RatingControlAAC",
        "moduleName": "RatingControl",
        "declAttributes": [
          "Custom",
          "AccessControl",
          "IBDesignable",
          "ObjC"
        ],
        "superclassUsr": "c:objc(cs)UIStackView",
        "inheritsConvenienceInitializers": true,
        "superclassNames": [
          "UIKit.UIStackView",
          "UIKit.UIView",
          "UIKit.UIResponder",
          "ObjectiveC.NSObject"
        ],
        "conformances": [
          {
            "kind": "Conformance",
            "name": "Equatable",
            "printedName": "Equatable",
            "usr": "s:SQ",
            "mangledName": "$sSQ"
          },
          {
            "kind": "Conformance",
            "name": "Hashable",
            "printedName": "Hashable",
            "usr": "s:SH",
            "mangledName": "$sSH"
          },
          {
            "kind": "Conformance",
            "name": "CVarArg",
            "printedName": "CVarArg",
            "usr": "s:s7CVarArgP",
            "mangledName": "$ss7CVarArgP"
          },
          {
            "kind": "Conformance",
            "name": "_KeyValueCodingAndObservingPublishing",
            "printedName": "_KeyValueCodingAndObservingPublishing",
            "usr": "s:10Foundation37_KeyValueCodingAndObservingPublishingP",
            "mangledName": "$s10Foundation37_KeyValueCodingAndObservingPublishingP"
          },
          {
            "kind": "Conformance",
            "name": "_KeyValueCodingAndObserving",
            "printedName": "_KeyValueCodingAndObserving",
            "usr": "s:10Foundation27_KeyValueCodingAndObservingP",
            "mangledName": "$s10Foundation27_KeyValueCodingAndObservingP"
          },
          {
            "kind": "Conformance",
            "name": "CustomStringConvertible",
            "printedName": "CustomStringConvertible",
            "usr": "s:s23CustomStringConvertibleP",
            "mangledName": "$ss23CustomStringConvertibleP"
          },
          {
            "kind": "Conformance",
            "name": "CustomDebugStringConvertible",
            "printedName": "CustomDebugStringConvertible",
            "usr": "s:s28CustomDebugStringConvertibleP",
            "mangledName": "$ss28CustomDebugStringConvertibleP"
          },
          {
            "kind": "Conformance",
            "name": "__DefaultCustomPlaygroundQuickLookable",
            "printedName": "__DefaultCustomPlaygroundQuickLookable",
            "usr": "s:s38__DefaultCustomPlaygroundQuickLookableP",
            "mangledName": "$ss38__DefaultCustomPlaygroundQuickLookableP"
          }
        ]
      }
    ],
    "json_format_version": 8
  },
  "ConstValues": [
    {
      "filePath": "\/Users\/faruuq\/Documents\/Sandbox\/GitlabRepos\/rating-control\/RatingControl\/RatingControl.swift",
      "kind": "FloatLiteral",
      "offset": 296,
      "length": 4,
      "value": "44.0"
    },
    {
      "filePath": "\/Users\/faruuq\/Documents\/Sandbox\/GitlabRepos\/rating-control\/RatingControl\/RatingControl.swift",
      "kind": "FloatLiteral",
      "offset": 310,
      "length": 4,
      "value": "44.0"
    },
    {
      "filePath": "\/Users\/faruuq\/Documents\/Sandbox\/GitlabRepos\/rating-control\/RatingControl\/RatingControl.swift",
      "kind": "IntegerLiteral",
      "offset": 430,
      "length": 1,
      "value": "5"
    },
    {
      "filePath": "\/Users\/faruuq\/Documents\/Sandbox\/GitlabRepos\/rating-control\/RatingControl\/RatingControl.swift",
      "kind": "IntegerLiteral",
      "offset": 523,
      "length": 1,
      "value": "0"
    },
    {
      "filePath": "\/Users\/faruuq\/Documents\/Sandbox\/GitlabRepos\/rating-control\/RatingControl\/RatingControl.swift",
      "kind": "StringLiteral",
      "offset": 1031,
      "length": 76,
      "value": "\"The button, \""
    },
    {
      "filePath": "\/Users\/faruuq\/Documents\/Sandbox\/GitlabRepos\/rating-control\/RatingControl\/RatingControl.swift",
      "kind": "StringLiteral",
      "offset": 1053,
      "length": 1,
      "value": "\", is not in the ratingButtons array: \""
    },
    {
      "filePath": "\/Users\/faruuq\/Documents\/Sandbox\/GitlabRepos\/rating-control\/RatingControl\/RatingControl.swift",
      "kind": "StringLiteral",
      "offset": 1106,
      "length": 2,
      "value": "\"\""
    },
    {
      "filePath": "\/Users\/faruuq\/Documents\/Sandbox\/GitlabRepos\/rating-control\/RatingControl\/RatingControl.swift",
      "kind": "IntegerLiteral",
      "offset": 1220,
      "length": 1,
      "value": "1"
    },
    {
      "filePath": "\/Users\/faruuq\/Documents\/Sandbox\/GitlabRepos\/rating-control\/RatingControl\/RatingControl.swift",
      "kind": "IntegerLiteral",
      "offset": 1380,
      "length": 1,
      "value": "0"
    },
    {
      "filePath": "\/Users\/faruuq\/Documents\/Sandbox\/GitlabRepos\/rating-control\/RatingControl\/RatingControl.swift",
      "kind": "StringLiteral",
      "offset": 1911,
      "length": 12,
      "value": "\"filledStar\""
    },
    {
      "filePath": "\/Users\/faruuq\/Documents\/Sandbox\/GitlabRepos\/rating-control\/RatingControl\/RatingControl.swift",
      "kind": "StringLiteral",
      "offset": 2013,
      "length": 11,
      "value": "\"emptyStar\""
    },
    {
      "filePath": "\/Users\/faruuq\/Documents\/Sandbox\/GitlabRepos\/rating-control\/RatingControl\/RatingControl.swift",
      "kind": "StringLiteral",
      "offset": 2120,
      "length": 17,
      "value": "\"highlightedStar\""
    },
    {
      "filePath": "\/Users\/faruuq\/Documents\/Sandbox\/GitlabRepos\/rating-control\/RatingControl\/RatingControl.swift",
      "kind": "IntegerLiteral",
      "offset": 2219,
      "length": 1,
      "value": "0"
    },
    {
      "filePath": "\/Users\/faruuq\/Documents\/Sandbox\/GitlabRepos\/rating-control\/RatingControl\/RatingControl.swift",
      "kind": "BooleanLiteral",
      "offset": 2711,
      "length": 5,
      "value": "false"
    },
    {
      "filePath": "\/Users\/faruuq\/Documents\/Sandbox\/GitlabRepos\/rating-control\/RatingControl\/RatingControl.swift",
      "kind": "BooleanLiteral",
      "offset": 2805,
      "length": 4,
      "value": "true"
    },
    {
      "filePath": "\/Users\/faruuq\/Documents\/Sandbox\/GitlabRepos\/rating-control\/RatingControl\/RatingControl.swift",
      "kind": "BooleanLiteral",
      "offset": 2896,
      "length": 4,
      "value": "true"
    },
    {
      "filePath": "\/Users\/faruuq\/Documents\/Sandbox\/GitlabRepos\/rating-control\/RatingControl\/RatingControl.swift",
      "kind": "StringLiteral",
      "offset": 2997,
      "length": 30,
      "value": "\"Set \""
    },
    {
      "filePath": "\/Users\/faruuq\/Documents\/Sandbox\/GitlabRepos\/rating-control\/RatingControl\/RatingControl.swift",
      "kind": "IntegerLiteral",
      "offset": 3012,
      "length": 1,
      "value": "1"
    },
    {
      "filePath": "\/Users\/faruuq\/Documents\/Sandbox\/GitlabRepos\/rating-control\/RatingControl\/RatingControl.swift",
      "kind": "StringLiteral",
      "offset": 3014,
      "length": 4,
      "value": "\" star rating\""
    },
    {
      "filePath": "\/Users\/faruuq\/Documents\/Sandbox\/GitlabRepos\/rating-control\/RatingControl\/RatingControl.swift",
      "kind": "IntegerLiteral",
      "offset": 3878,
      "length": 1,
      "value": "1"
    },
    {
      "filePath": "\/Users\/faruuq\/Documents\/Sandbox\/GitlabRepos\/rating-control\/RatingControl\/RatingControl.swift",
      "kind": "StringLiteral",
      "offset": 3911,
      "length": 34,
      "value": "\"Tap to reset the rating to zero.\""
    },
    {
      "filePath": "\/Users\/faruuq\/Documents\/Sandbox\/GitlabRepos\/rating-control\/RatingControl\/RatingControl.swift",
      "kind": "IntegerLiteral",
      "offset": 4152,
      "length": 1,
      "value": "0"
    },
    {
      "filePath": "\/Users\/faruuq\/Documents\/Sandbox\/GitlabRepos\/rating-control\/RatingControl\/RatingControl.swift",
      "kind": "StringLiteral",
      "offset": 4185,
      "length": 16,
      "value": "\"No rating set.\""
    },
    {
      "filePath": "\/Users\/faruuq\/Documents\/Sandbox\/GitlabRepos\/rating-control\/RatingControl\/RatingControl.swift",
      "kind": "IntegerLiteral",
      "offset": 4219,
      "length": 1,
      "value": "1"
    },
    {
      "filePath": "\/Users\/faruuq\/Documents\/Sandbox\/GitlabRepos\/rating-control\/RatingControl\/RatingControl.swift",
      "kind": "StringLiteral",
      "offset": 4252,
      "length": 13,
      "value": "\"1 star set.\""
    },
    {
      "filePath": "\/Users\/faruuq\/Documents\/Sandbox\/GitlabRepos\/rating-control\/RatingControl\/RatingControl.swift",
      "kind": "StringLiteral",
      "offset": 4317,
      "length": 22,
      "value": "\"\""
    },
    {
      "filePath": "\/Users\/faruuq\/Documents\/Sandbox\/GitlabRepos\/rating-control\/RatingControl\/RatingControl.swift",
      "kind": "StringLiteral",
      "offset": 4327,
      "length": 5,
      "value": "\" stars set.\""
    }
  ]
}